info4/gl/blog/web/rest/errors/LoginAlreadyUsedException.class
info4/gl/blog/domain/Commande_.class
info4/gl/blog/repository/ProduitRepository.class
info4/gl/blog/management/SecurityMetersService.class
info4/gl/blog/security/jwt/JWTConfigurer.class
info4/gl/blog/config/CRLFLogConverter.class
info4/gl/blog/repository/ProduitCommandeRepositoryWithBagRelationships.class
info4/gl/blog/domain/Utilisateur.class
info4/gl/blog/domain/Utilisateur_.class
info4/gl/blog/domain/Course_.class
info4/gl/blog/domain/User.class
info4/gl/blog/web/rest/CommandeResource.class
info4/gl/blog/BlogApp.class
info4/gl/blog/config/package-info.class
info4/gl/blog/domain/Commande.class
info4/gl/blog/domain/Paiement_.class
info4/gl/blog/web/rest/ClientForwardController.class
info4/gl/blog/security/jwt/TokenProvider.class
info4/gl/blog/web/rest/UserJWTController$JWTToken.class
info4/gl/blog/repository/PaiementRepository.class
info4/gl/blog/repository/CooperativeRepository.class
META-INF/spring-configuration-metadata.json
info4/gl/blog/domain/ProduitCommande.class
info4/gl/blog/config/StaticResourcesWebConfiguration.class
info4/gl/blog/security/DomainUserDetailsService.class
info4/gl/blog/web/rest/errors/InvalidPasswordException.class
info4/gl/blog/domain/enumeration/MethodeDePaiement.class
info4/gl/blog/web/rest/RoleResource.class
info4/gl/blog/web/rest/UtilisateurResource.class
info4/gl/blog/repository/CoursierRepository.class
info4/gl/blog/web/rest/ProduitResource.class
info4/gl/blog/web/rest/package-info.class
info4/gl/blog/web/rest/UserResource.class
info4/gl/blog/web/rest/CooperativeResource.class
info4/gl/blog/config/AsyncConfiguration.class
info4/gl/blog/config/DateTimeFormatConfiguration.class
info4/gl/blog/domain/ProduitCommande_.class
info4/gl/blog/domain/package-info.class
info4/gl/blog/domain/Cooperative.class
info4/gl/blog/service/EmailAlreadyUsedException.class
info4/gl/blog/domain/FaitParti.class
info4/gl/blog/domain/enumeration/ROLE.class
info4/gl/blog/domain/Role.class
info4/gl/blog/security/UserNotActivatedException.class
info4/gl/blog/config/ApplicationProperties.class
info4/gl/blog/service/MailService.class
info4/gl/blog/web/rest/vm/KeyAndPasswordVM.class
info4/gl/blog/service/mapper/package-info.class
info4/gl/blog/web/rest/errors/package-info.class
info4/gl/blog/config/JacksonConfiguration.class
info4/gl/blog/domain/Course.class
info4/gl/blog/web/rest/errors/ErrorConstants.class
info4/gl/blog/security/AuthoritiesConstants.class
info4/gl/blog/config/CacheConfiguration.class
info4/gl/blog/repository/AuthorityRepository.class
info4/gl/blog/domain/Menu_.class
info4/gl/blog/service/dto/AdminUserDTO.class
info4/gl/blog/web/rest/errors/ExceptionTranslator.class
info4/gl/blog/repository/CourseRepository.class
info4/gl/blog/web/rest/PublicUserResource.class
info4/gl/blog/domain/Role_.class
info4/gl/blog/service/mapper/UserMapper.class
info4/gl/blog/domain/enumeration/Etat.class
info4/gl/blog/web/rest/CourseResource.class
info4/gl/blog/aop/logging/LoggingAspect.class
info4/gl/blog/web/rest/CoursierResource.class
info4/gl/blog/service/UserService.class
info4/gl/blog/web/rest/errors/EmailAlreadyUsedException.class
info4/gl/blog/domain/Produit.class
info4/gl/blog/repository/RoleRepository.class
info4/gl/blog/web/rest/AccountResource$AccountResourceException.class
info4/gl/blog/repository/package-info.class
info4/gl/blog/domain/Coursier_.class
info4/gl/blog/domain/enumeration/GERE.class
info4/gl/blog/config/WebConfigurer.class
info4/gl/blog/web/rest/AccountResource.class
info4/gl/blog/security/SecurityUtils.class
info4/gl/blog/GeneratedByJHipster.class
info4/gl/blog/domain/AbstractAuditingEntity.class
info4/gl/blog/domain/Menu.class
info4/gl/blog/config/LocaleConfiguration.class
info4/gl/blog/repository/MenuRepository.class
info4/gl/blog/repository/CommandeRepository.class
info4/gl/blog/config/DatabaseConfiguration.class
info4/gl/blog/domain/FaitParti_.class
info4/gl/blog/service/UsernameAlreadyUsedException.class
info4/gl/blog/domain/Authority_.class
info4/gl/blog/domain/User_.class
info4/gl/blog/domain/Authority.class
info4/gl/blog/web/rest/errors/BadRequestAlertException.class
info4/gl/blog/web/rest/errors/FieldErrorVM.class
info4/gl/blog/web/rest/ProduitCommandeResource.class
info4/gl/blog/web/rest/vm/ManagedUserVM.class
info4/gl/blog/security/jwt/JWTFilter.class
info4/gl/blog/web/rest/UserJWTController.class
info4/gl/blog/web/rest/FaitPartiResource.class
info4/gl/blog/domain/Coursier.class
info4/gl/blog/repository/FaitPartiRepository.class
info4/gl/blog/service/InvalidPasswordException.class
info4/gl/blog/service/dto/UserDTO.class
info4/gl/blog/repository/UtilisateurRepository.class
info4/gl/blog/service/package-info.class
info4/gl/blog/config/Constants.class
info4/gl/blog/config/LoggingAspectConfiguration.class
info4/gl/blog/web/rest/vm/LoginVM.class
info4/gl/blog/web/rest/vm/package-info.class
info4/gl/blog/service/dto/PasswordChangeDTO.class
info4/gl/blog/domain/Paiement.class
info4/gl/blog/service/dto/package-info.class
info4/gl/blog/web/rest/MenuResource.class
info4/gl/blog/config/LiquibaseConfiguration.class
info4/gl/blog/domain/Cooperative_.class
info4/gl/blog/config/SecurityConfiguration.class
info4/gl/blog/repository/ProduitCommandeRepository.class
info4/gl/blog/domain/Produit_.class
info4/gl/blog/security/SpringSecurityAuditorAware.class
info4/gl/blog/repository/UserRepository.class
info4/gl/blog/security/package-info.class
info4/gl/blog/repository/ProduitCommandeRepositoryWithBagRelationshipsImpl.class
info4/gl/blog/web/rest/PaiementResource.class
info4/gl/blog/config/LoggingConfiguration.class
info4/gl/blog/ApplicationWebXml.class
info4/gl/blog/domain/AbstractAuditingEntity_.class
